example_id                       | status | run_time        |
-------------------------------- | ------ | --------------- |
./spec/helpers/task_spec.rb[1:1] | passed | 0.06276 seconds |
./spec/models/task_spec.rb[1:1]  | passed | 0.00451 seconds |
./spec/models/task_spec.rb[1:2]  | passed | 0.00522 seconds |
./spec/models/task_spec.rb[1:3]  | passed | 0.00576 seconds |
./spec/models/task_spec.rb[1:4]  | passed | 0.00489 seconds |
./spec/models/task_spec.rb[1:5]  | passed | 0.16299 seconds |
./spec/models/task_spec.rb[1:6]  | passed | 0.00465 seconds |
./spec/models/task_spec.rb[1:7]  | passed | 0.00551 seconds |
./spec/models/task_spec.rb[1:8]  | passed | 0.00537 seconds |
./spec/models/task_spec.rb[1:9]  | passed | 0.00673 seconds |
